…
We can use an existing dataset, such as the CSV file [here](https://msu.edu/~kenfrank/example%20dataset%20for%20mkonfound.csv).

``` r
d <- read.csv("https://msu.edu/~kenfrank/example%20dataset%20for%20mkonfound.csv")
head(d)
#>           t  df
#> 1  7.076763 178
#> 2  4.127893 193
#> 3  1.893137  47
#> 4 -4.166395 138
#> 5 -1.187599  97
#> 6  3.585478  87
mkonfound(d, t, df)
#> # A tibble: 30 x 7
#>         t    df action        inference  pct_bias_to_chan…     itcv  r_con
#>     <dbl> <int> <chr>         <chr>                  <dbl>    <dbl>  <dbl>
#>  1  7.08    178 to_invalidate reject_nu…             68.8   0.378   0.614 
#>  2  4.13    193 to_invalidate reject_nu…             50.6   0.168   0.410 
#>  3  1.89     47 to_sustain    fail_to_r…              5.47 -0.0120  0.110 
#>  4 -4.17    138 to_invalidate reject_nu…             50.3   0.202   0.449 
#>  5 -1.19     97 to_sustain    fail_to_r…             39.4  -0.0650  0.255 
#>  6  3.59     87 to_invalidate reject_nu…             41.9   0.190   0.436 
#>  7  0.282   117 to_sustain    fail_to_r…             85.5  -0.131   0.361 
#>  8  2.55     75 to_invalidate reject_nu…             20.6   0.0750  0.274 
#>  9 -4.44    137 to_invalidate reject_nu…             53.0   0.225   0.475 
#> 10 -2.05    195 to_invalidate reject_nu…              3.51  0.00600 0.0770
#> # ... with 20 more rows
```
…
