Introduction to konfound • konfound
…
Use of mkonfound() for meta-analyses that include sensitivity
analysis

mkonfound() supports sensitivity that can be compared or
synthesized across multiple analyses. Calculations are based on the RIR
framework using correlations to express effects and thresholds in each
study. For example, here, d represents output from a number
(30 in this case) of past studies, read in a CSV file from a
website:

mkonfound_ex
#> # A tibble: 30 × 2
#>         t    df
#>     <dbl> <dbl>
#>  1  7.08    178
#>  2  4.13    193
#>  3  1.89     47
#>  4 -4.17    138
#>  5 -1.19     97
#>  6  3.59     87
#>  7  0.282   117
#>  8  2.55     75
#>  9 -4.44    137
#> 10 -2.05    195
#> # ℹ 20 more rows
mkonfound(mkonfound_ex, t, df)
#> # A tibble: 30 × 7
#>         t    df action        inference      pct_bias_to_change_i…¹   itcv r_con
#>     <dbl> <dbl> <chr>         <chr>                           <dbl>  <dbl> <dbl>
#>  1  7.08    178 to_invalidate reject_null                     68.8   0.378 0.614
#>  2  4.13    193 to_invalidate reject_null                     50.6   0.168 0.41 
#>  3  1.89     47 to_sustain    fail_to_rejec…                   5.47 -0.012 0.11 
#>  4 -4.17    138 to_invalidate reject_null                     50.3   0.202 0.449
#>  5 -1.19     97 to_sustain    fail_to_rejec…                  39.4  -0.065 0.255
#>  6  3.59     87 to_invalidate reject_null                     41.9   0.19  0.436
#>  7  0.282   117 to_sustain    fail_to_rejec…                  85.5  -0.131 0.361
#>  8  2.55     75 to_invalidate reject_null                     20.6   0.075 0.274
#>  9 -4.44    137 to_invalidate reject_null                     53.0   0.225 0.475
#> 10 -2.05    195 to_invalidate reject_null                      3.51  0.006 0.077
#> # ℹ 20 more rows
#> # ℹ abbreviated name: ¹​pct_bias_to_change_inference
…
